The Nested Sampling Toolkit • ernest
…
run <- generate(sampler, min_logz = 0.01)
run
#> 
#> ── Nested Sampling Run from ernest ─────────────────────────────────────────────
#> No. Live Points: 500
#> No. Iterations: 4499
#> No. Calls: 112475
#> Log Evidence: -6.92927749302562
calculate(run)
#> # A tibble: 4,999 × 6
#>    log_lik  log_vol log_weight log_z log_z_var information
#>      <dbl>    <dbl>      <dbl> <dbl>     <dbl>       <dbl>
#>  1   -53.8 -0.00200      -60.7 -60.7  4.32e-25   -2.16e-22
#>  2   -53.0 -0.00400      -59.5 -59.2  1.77e-24   -8.88e-22
#>  3   -49.3 -0.00599      -56.2 -56.2  3.47e-23   -1.74e-20
#>  4   -49.2 -0.00799      -55.5 -55.1  1.02e-22   -5.10e-20
#>  5   -48.0 -0.00999      -54.6 -54.2  2.58e-22   -1.29e-19
#>  6   -47.4 -0.0120       -53.9 -53.3  5.89e-22   -2.95e-19
#>  7   -46.5 -0.0140       -53.1 -52.5  1.29e-21   -6.46e-19
#>  8   -45.3 -0.0160       -52.0 -51.5  3.37e-21   -1.69e-18
#>  9   -45.1 -0.0180       -51.5 -50.8  6.89e-21   -3.45e-18
#> 10   -43.4 -0.0200       -50.1 -49.7  1.96e-20   -9.83e-18
#> # ℹ 4,989 more rows
…
