…
run <- generate(sampler, min_logz = 0.01)
run
#> 
#> ── Nested Sampling Run from ernest ─────────────────────────────────────────────
#> No. Live Points: 500
#> No. Iterations: 4451
#> No. Calls: 111275
#> Log Evidence: -6.83435374840042
calculate(run)
#> # A tibble: 4,951 × 7
#>    .iter log_lik  log_vol log_weight log_z log_z_var information
#>    <int>   <dbl>    <dbl>      <dbl> <dbl>     <dbl>       <dbl>
#>  1     1   -52.9 -0.00200      -59.8 -59.8  9.23e-25   -4.62e-22
#>  2     2   -51.2 -0.00400      -58.0 -57.8  6.45e-24   -3.23e-21
#>  3     3   -47.6 -0.00599      -54.5 -54.4  1.76e-22   -8.82e-20
#>  4     4   -47.3 -0.00799      -53.7 -53.3  5.45e-22   -2.73e-19
#>  5     5   -46.9 -0.00999      -53.3 -52.6  1.06e-21   -5.28e-19
#>  6     6   -45.7 -0.0120       -52.4 -51.8  2.35e-21   -1.18e-18
#>  7     7   -44.7 -0.0140       -51.3 -50.8  6.01e-21   -3.01e-18
#>  8     8   -44.1 -0.0160       -50.6 -50.0  1.35e-20   -6.77e-18
#>  9     9   -43.6 -0.0180       -50.1 -49.3  2.60e-20   -1.30e-17
#> 10    10   -41.7 -0.0200       -48.5 -48.2  8.13e-20   -4.07e-17
#> # ℹ 4,941 more rows
```
…
