…
# Summarize the run and view a tibble of its results.
run_sm <- summary(example_run)
run_sm
#> nested sampling result summary <summary.ernest_run>
#> • No. Points: 1000
#> • No. Iterations: 9384
#> ────────────────────────────────────────────────────────────────────────────────
#> • No. Calls: 205329
#> • Log. Volume: -16.87
#> • Log. Evidence: -9.045 (± 0.08309)
run_sm$run
#> # A tibble: 10,384 × 7
#>     call log_lik log_volume log_weight log_evidence log_evidence_err information
#>    <int>   <dbl>      <dbl>      <dbl>        <dbl>            <dbl>       <dbl>
#>  1     1   -147.     -0.001      -145.        -154.         7.02e-33   -4.92e-62
#>  2     2   -141.     -0.002      -139.        -148.         1.81e-31   -3.29e-59
#>  3     3   -136.     -0.003      -134.        -143.         1.85e-30   -3.43e-57
#>  4     4   -136.     -0.004      -133.        -142.         3.74e-30   -1.40e-56
#>  5     5   -134.     -0.005      -131.        -140.         8.30e-30   -6.90e-56
#>  6     6   -130.     -0.006      -128.        -137.         3.86e-29   -1.49e-54
#>  7     7   -130.     -0.007      -128.        -136.         6.84e-29   -4.68e-54
#>  8     8   -129.     -0.008      -127.        -135.         1.09e-28   -1.18e-53
#>  9     9   -129.     -0.009      -127.        -135.         1.55e-28   -2.40e-53
#> 10    10   -126.     -0.01       -123.        -132.         4.02e-28   -1.62e-52
#> # ℹ 10,374 more rows
```
