A Nested Sampling Crash Course with Ernest • ernest
…
#> 
#> Attaching package: 'posterior'
#> The following objects are masked from 'package:stats':
#> 
#>     mad, sd, var
#> The following objects are masked from 'package:base':
#> 
#>     %in%, match
calc_sim <- calculate(run_dlogz, ndraws = 1000)
calc_sim
#> Nested sampling estimates <ernest_estimate>
#> No. of Simulated Draws: 1000
#> Log. Volume: -16 ± 1.3
#> Log. Evidence: -8.9 ± 0.19
#> # A tibble: 5,205 × 4
#>       log_lik        log_volume  log_weight log_evidence
#>    <rvar[1d]>        <rvar[1d]>  <rvar[1d]>   <rvar[1d]>
#>  1  -146 ± NA  -0.0019 ± 0.0020  -154 ± 1.3  -154 ± 1.26
#>  2  -144 ± NA  -0.0039 ± 0.0029  -151 ± 1.2  -151 ± 0.97
#>  3  -139 ± NA  -0.0057 ± 0.0035  -146 ± 1.3  -146 ± 1.19
#>  4  -136 ± NA  -0.0078 ± 0.0040  -143 ± 1.4  -143 ± 1.11
#>  5  -129 ± NA  -0.0097 ± 0.0046  -136 ± 1.3  -136 ± 1.25
#>  6  -126 ± NA  -0.0116 ± 0.0050  -134 ± 1.3  -134 ± 1.02
#>  7  -125 ± NA  -0.0136 ± 0.0055  -132 ± 1.2  -132 ± 0.88
#>  8  -125 ± NA  -0.0155 ± 0.0058  -132 ± 1.3  -131 ± 0.73
#>  9  -118 ± NA  -0.0175 ± 0.0062  -126 ± 1.4  -126 ± 1.28
#> 10  -118 ± NA  -0.0194 ± 0.0065  -125 ± 1.2  -124 ± 0.82
#> # ℹ 5,195 more rows
…
