…
The result object has a `summary` method for viewing evidence estimates,
posterior samples, and diagnostics as a tidy `tibble`:

``` r
summary(run2)
#> nested sampling result summary <summary.ernest_run>
#> • No. Points: 500
#> • No. Iterations: 6700
#> ────────────────────────────────────────────────────────────────────────────────
#> • No. Calls: 153206
#> • Log. Volume: -20.19
#> • Log. Evidence: -9.078 (± 0.1249)
summary(run2)$run
#> # A tibble: 7,200 × 7
#>     call log_lik log_volume log_weight log_evidence log_evidence_err information
#>    <int>   <dbl>      <dbl>      <dbl>        <dbl>            <dbl>       <dbl>
#>  1     1  -2307.     -0.002     -2304.       -2313.                0           0
#>  2     2  -2239.     -0.004     -2236.       -2245.                0           0
#>  3     3  -2027.     -0.006     -2024.       -2033.                0           0
#>  4     4  -1998.     -0.008     -1995.       -2004.                0           0
#>  5     5  -1937.     -0.01      -1934.       -1943.                0           0
#>  6     6  -1886.     -0.012     -1883.       -1892.                0           0
#>  7     7  -1865.     -0.014     -1862.       -1871.                0           0
#>  8     8  -1831.     -0.016     -1828.       -1837.                0           0
#>  9     9  -1829.     -0.018     -1826.       -1835.                0           0
#> 10    10  -1803.     -0.02      -1800.       -1810.                0           0
#> # ℹ 7,190 more rows
```
…
#### Uncertainty and Resampling

You can simulate the uncertainty of an NS run by generating random draws
of the log-volume estimate at each iteration Higson et al. (2019). You
can then visualise this uncertainty with the estimate’s `plot` method.

``` r
calc_sim <- calculate(run2, ndraws = 500)
calc_sim
#> evidence estimates <ernest_estimate>
#> 
#> No. of Simulated Draws: 500
#> Log. Volume: -20 ± 1.4
#> Log. Evidence: -9.1 ± 0.12
#> # A tibble: 7,200 × 4
#>        log_lik        log_volume    log_weight  log_evidence
#>     <rvar[1d]>        <rvar[1d]>    <rvar[1d]>    <rvar[1d]>
#>  1  -2307 ± NA  -0.0019 ± 0.0019  -2313 ± 0.82  -2313 ± 0.82
#>  2  -2239 ± NA  -0.0038 ± 0.0026  -2246 ± 0.82  -2246 ± 0.82
#>  3  -2027 ± NA  -0.0060 ± 0.0034  -2033 ± 0.86  -2033 ± 0.86
#>  4  -1998 ± NA  -0.0080 ± 0.0040  -2005 ± 0.75  -2005 ± 0.75
#>  5  -1937 ± NA  -0.0101 ± 0.0044  -1943 ± 0.81  -1943 ± 0.81
#>  6  -1886 ± NA  -0.0121 ± 0.0049  -1893 ± 0.85  -1893 ± 0.85
#>  7  -1865 ± NA  -0.0142 ± 0.0053  -1871 ± 0.82  -1871 ± 0.82
#>  8  -1831 ± NA  -0.0162 ± 0.0057  -1837 ± 0.80  -1837 ± 0.80
#>  9  -1829 ± NA  -0.0181 ± 0.0060  -1836 ± 0.75  -1836 ± 0.66
#> 10  -1803 ± NA  -0.0201 ± 0.0062  -1810 ± 0.76  -1810 ± 0.76
#> # ℹ 7,190 more rows
…
